id,name,model_id:id,group_id:id,perm_read,perm_write,perm_create,perm_unlink
access_workflow_worker_permission,access.document.user.allowed,model_workflow_worker_permission,base.group_user,1,1,1,1
access_document_user_allowed,access.document.user.allowed,model_document_user_allowed,base.group_user,1,1,1,1



